{
  "Ekkart Kleinod": {
    "title": "Vorsitzender",
    "mail": "schiri@ekkart.de",
    "filename": "ekkart_kleinod.jpg"
  },
  "Martin Becker": {
    "title": "Stellvertreter",
    "mail": "martin.becker@bettv.de",
    "filename": "martin_becker.jpg"
  },
  "Alexander Ohle": {
    "title": "Beisitzer",
    "mail": "a.ohle@gmx.de",
    "filename": "alex_ohle.jpg"
  }
}
